…
## Getting started

## Generic table interface

All fishbase tables can be accessed by name using the `fb_tbl()`
function:

``` r
fb_tbl("ecosystem")
```

    # A tibble: 158,644 × 18
       autoctr E_CODE EcosystemRefno Speccode Stockcode Status CurrentPresence
         <int>  <int>          <int>    <int>     <int> <chr>  <chr>          
     1       1      1          50628      549       565 native Present        
     2       2      1            189      552       568 native Present        
     3       3      1            189      554       570 native Present        
     4       4      1          79732      873       889 native Present        
     5       5      1           5217      948       964 native Present        
     6       7      1          39852      956       972 native Present        
     7       8      1          39852      957       973 native Present        
     8       9      1          39852      958       974 native Present        
     9      10      1            188     1526      1719 native Present        
    10      11      1            188     1626      1819 native Present        
    # ℹ 158,634 more rows
    # ℹ 11 more variables: Abundance <chr>, LifeStage <chr>, Remarks <chr>,
    #   Entered <int>, Dateentered <dttm>, Modified <int>, Datemodified <dttm>,
    #   Expert <int>, Datechecked <dttm>, WebURL <chr>, TS <dttm>
…
## SeaLifeBase

SeaLifeBase.org is maintained by the same organization and largely
parallels the database structure of Fishbase. As such, almost all
`rfishbase` functions can instead be instructed to address the

``` r
fb_tbl("species", "sealifebase")
```

    # A tibble: 103,290 × 109
       SpecCode Genus   Species Author SpeciesRefNo FBname FamCode Subfamily GenCode
          <int> <chr>   <chr>   <chr>         <int> <chr>    <int> <chr>       <int>
     1    10215 Aatola… schioe… (Mier…         3113 <NA>       521 <NA>         9254
     2    90398 Aatola… spring… Keabl…         3113 <NA>       521 <NA>         9254
     3   142030 Abaren… affinis (Ashw…        85340 <NA>       238 <NA>         9255
     4    38944 Abaren… clapar… (Levi…        85340 <NA>       238 <NA>         9255
     5    38945 Abaren… pacifi… unspe…        93817 Pacif…     238 <NA>         9255
     6    38946 Abaren… pusilla unspe…           19 <NA>       238 <NA>         9255
     7    38948 Abaren… vagabu… unspe…           19 <NA>       238 <NA>         9255
     8    28719 Abasia  pseudo… Wilso…           19 <NA>       827 <NA>         9256
     9   130412 Abathe… fissum  (Hoek…        81749 <NA>       771 <NA>         9257
    10    32026 Abathe… korean… (Hiro…           19 <NA>       771 <NA>         9257
    # ℹ 103,280 more rows
    # ℹ 100 more variables: TaxIssue <int>, Remark <chr>, PicPreferredName <chr>,
    #   PicPreferredNameM <chr>, PicPreferredNameF <chr>, PicPreferredNameJ <chr>,
    #   Source <chr>, AuthorRef <int>, SubGenCode <int>, Fresh <int>, Brack <int>,
    #   Saltwater <int>, Land <int>, BodyShapeI <chr>, DemersPelag <chr>,
    #   AnaCat <chr>, MigratRef <int>, DepthRangeShallow <int>,
    #   DepthRangeDeep <int>, DepthRangeRef <int>, DepthRangeComShallow <int>, …
…
## Low-memory environments

If you have very limited RAM (e.g. \<= 1 GB available) it may be helpful
to use `fishbase` tables in remote form by setting `collect = FALSE`.
This allows the tables to remain on disk, while the user is still able
to use almost all `dplyr` functions (see the `dbplyr` vignette). Once
the table is appropriately subset, the user will need to call
`dplyr::collect()` to use generic non-dplyr functions, such as plotting
commands.

``` r
fb_tbl("occurrence")
```

    # A tibble: 1,097,303 × 106
       catnum2 OccurrenceRefNo SpecCode Syncode Stockcode GenusCol       SpeciesCol 
         <int>           <int>    <int>   <int>     <int> <chr>          <chr>      
     1   34424           36653      227   22902       241 "Megalops"     "cyprinoid…
     2   95154           45880       NA      NA        NA ""             ""         
     3   97606           45880       NA      NA        NA ""             ""         
     4  100025           45880     5520   25676      5809 "Johnius"      "belangeri…
     5   98993           45880     5676   16650      5969 "Chromis"      "retrofasc…
     6   99316           45880      454   23112       468 "Drepane"      "punctata" 
     7   99676           45880     5388  145485      5647 "Gymnothorax"  "boschi"   
     8   99843           45880    16813  119925     15264 "Hemiramphus"  "balinensi…
     9  100607           45880     8288   59635      8601 "Ostracion"    "rhinorhyn…
    10  101529           45880       NA      NA        NA "Scomberoides" "toloo-par…
    # ℹ 1,097,293 more rows
    # ℹ 99 more variables: ColName <chr>, PicName <chr>, CatNum <chr>, URL <chr>,
    #   Station <chr>, Cruise <chr>, Gazetteer <chr>, LocalityType <chr>,
    #   WaterDepthMin <dbl>, WaterDepthMax <dbl>, AltitudeMin <int>,
    #   AltitudeMax <int>, LatitudeDeg <int>, LatitudeMin <dbl>, NorthSouth <chr>,
    #   LatitudeDec <dbl>, LongitudeDeg <int>, LongitudeMIn <dbl>, EastWest <chr>,
    #   LongitudeDec <dbl>, Accuracy <chr>, Salinity <chr>, LatitudeTo <dbl>, …
…
