The New rfishbase
…
Rows: 324211 Columns: 35

── Column specification ────────────────────────────────────────────────────────
Delimiter: "\t"
chr (34): autoctr, ComName, Transliteration, StockCode, SpecCode, C_Code, La...
dbl  (1): ComNamesRefNo

ℹ Use `spec()` to retrieve the full column specification for this data.
ℹ Specify the column types or set `show_col_types = FALSE` to quiet this message.

    ...Done! (in 12.5654 secs)

trout

# A tibble: 296 × 4
   Species                   ComName              Language SpecCode
   <chr>                     <chr>                <chr>    <chr>   
 1 Salmo obtusirostris       Adriatic trout       English  6210    
 2 Schizothorax richardsonii Alawan snowtrout     English  8705    
 3 Schizopyge niger          Alghad snowtrout     English  24454   
 4 Salvelinus fontinalis     American brook trout English  246     
 5 Salmo trutta              Amu-Darya trout      English  238     
 6 Salmo kottelati           Antalya trout        English  67602   
 7 Oncorhynchus apache       Apache Trout         English  2687    
 8 Oncorhynchus apache       Apache trout         English  2687    
 9 Plectropomus areolatus    Apricot trout        English  6082    
10 Salmo trutta              Aral Sea Trout       English  238     
# … with 286 more rows

Note that there is no need to validate names coming from common_to_sci or species_list, as these will always return valid names.

Getting data

With a species list in place, we are ready to query fishbase for data. Note that if you have a very long list of species, it is always a good idea to try out your intended functions with a subset of that list first to make sure everything is working.

The species() function returns a table containing much (but not all) of the information found on the summary or homepage for a species on FishBase. rfishbase functions always return tidy data tables: rows are observations (e.g. a species, individual samples from a species) and columns are variables (fields).

species(trout$Species)

# A tibble: 296 × 101
   SpecCode Species                   Genus SpeciesRefNo Author FBname PicPreferredName
   <chr>    <chr>                     <chr>        <dbl> <chr>  <chr>  <chr>           
 1 6210     Salmo obtusirostris       Salmo        59043 (Heck… Adria… Saobt_u0.jpg    
 2 8705     Schizothorax richardsonii Schi…         4832 (Gray… Snowt… Scric_u1.jpg    
 3 24454    Schizopyge niger          Schi…         4832 (Heck… Algha… <NA>            
 4 246      Salvelinus fontinalis     Salv…        86798 (Mitc… Brook… Safon_u4.jpg    
 5 238      Salmo trutta              Salmo         4779 Linna… Sea t… Satru_u2.jpg    
 6 67602    Salmo kottelati           Salmo        99540 Turan… Antal… Sakot_m0.jpg    
 7 2687     Oncorhynchus apache       Onco…         5723 (Mill… Apach… Onapa_u0.jpg    
 8 2687     Oncorhynchus apache       Onco…         5723 (Mill… Apach… Onapa_u0.jpg    
 9 6082     Plectropomus areolatus    Plec…         5222 (Rüpp… Squar… Plare_u4.jpg    
10 238      Salmo trutta              Salmo         4779 Linna… Sea t… Satru_u2.jpg    
# … with 286 more rows, and 94 more variables: PicPreferredNameM <chr>,
#   PicPreferredNameF <chr>, PicPreferredNameJ <chr>, FamCode <dbl>,
#   Subfamily <chr>, GenCode <dbl>, SubGenCode <dbl>, BodyShapeI <chr>,
#   Source <chr>, AuthorRef <chr>, Remark <chr>, TaxIssue <chr>, Fresh <dbl>,
#   Brack <dbl>, Saltwater <dbl>, DemersPelag <chr>, Amphibious <chr>,
#   AmphibiousRef <int>, AnaCat <chr>, MigratRef <dbl>,
#   DepthRangeShallow <chr>, DepthRangeDeep <dbl>, DepthRangeRef <dbl>, …

Most tables contain many fields. To avoid overly cluttering the screen, rfishbase displays tables as “tibbles” from the dplyr package. These act just like the familiar data.frames of base R except that they print to the screen in a more tidy fashion. Note that columns that cannot fit easily in the display are summarized below the table. This gives us an easy way to see what fields are available in a given table.

Most rfishbase functions will let the user subset these fields by listing them in the fields argument, for instance:

dat <- species(trout$Species, fields=c("Species", "PriceCateg", "Vulnerability"))
dat

# A tibble: 296 × 3
   Species                   PriceCateg Vulnerability
   <chr>                     <chr>              <dbl>
 1 Salmo obtusirostris       very high           47.0
 2 Schizothorax richardsonii unknown             34.8
 3 Schizopyge niger          unknown             46.8
 4 Salvelinus fontinalis     very high           43.4
 5 Salmo trutta              very high           56.3
 6 Salmo kottelati           <NA>                33.1
 7 Oncorhynchus apache       very high           52.3
 8 Oncorhynchus apache       very high           52.3
 9 Plectropomus areolatus    very high           30.3
10 Salmo trutta              very high           56.3
# … with 286 more rows
…
Rows: 35322 Columns: 119

── Column specification ────────────────────────────────────────────────────────
Delimiter: "\t"
chr  (50): StockCode, SpecCode, SynOC, StockDefs, StockDefsGeneral, Level, L...
dbl  (67): StocksRefNo, Easternmost, BoundingRef, BoundingMethod, TempMin, T...
dttm  (2): DateModified, DateChecked

ℹ Use `spec()` to retrieve the full column specification for this data.
ℹ Specify the column types or set `show_col_types = FALSE` to quiet this message.

    ...Done! (in 2.653803 secs)

# A tibble: 397 × 3
   Species                   Resilience StockDefs                               
   <chr>                     <chr>      <chr>                                   
 1 Salmo obtusirostris       Medium     Europe:  Adriatic basin in Krka, Jardo,…
 2 Schizothorax richardsonii Medium     Asia:  Himalayan region of India, Sikki…
 3 Schizopyge niger          Medium     Asia:  Kashmir Valley in India and Azad…
 4 Salvelinus fontinalis     Medium     North America:  native to most of easte…
 5 Salmo trutta              <NA>       <i>Salmo trutta aralensis</i>:  Asia:  …
 6 Salmo trutta              <NA>       <i>Salmo trutta aralensis</i>:  Asia:  …
 7 Salmo trutta              Medium     <i>Salmo trutta fario</i>:  Northeast  …
 8 Salmo trutta              <NA>       <i>Salmo trutta lacustris</i>           
 9 Salmo trutta              <NA>       <i>Salmo trutta oxianus</i>             
10 Salmo trutta              <NA>       Baltic Sea (ICES subdivisions 22-32)    
# … with 387 more rows
…
ℹ Use `spec()` to retrieve the full column specification for this data.
ℹ Specify the column types or set `show_col_types = FALSE` to quiet this message.

    ...Done! (in 0.03282166 secs)

(Note: running load_taxa() at the beginning of any session, for either fishbase or sealifebase is a good way to “warm up” rfishbase by loading in taxonomic data it will need. This information is cached throughout your session and will make all subsequent commands run faster. But no worries if you skip this step, rfishbase will peform it for you on the first time it is needed, and will cache these results thereafter.)

Let’s look at some Gastropods:

sealife %>% filter(Class == "Gastropoda")

# A tibble: 19,390 × 9
   SpecCode Species     Genus   Subfamily  Family   Order  Class  Phylum Kingdom
   <chr>    <chr>       <chr>   <chr>      <chr>    <chr>  <chr>  <chr>  <chr>  
 1 148430   Aartsenia … Aartse… <NA>       Pyramid… Not a… Gastr… Mollu… Animal…
 2 80334    Abranchaea… Abranc… <NA>       Pneumod… Gymno… Gastr… Mollu… Animal…
 3 5182     Acanthina … Acanth… Ocenebrin… Muricid… Neoga… Gastr… Mollu… Animal…
 4 148525   Acanthina … Acanth… Ocenebrin… Muricid… Neoga… Gastr… Mollu… Animal…
 5 5179     Acanthina … Acanth… Ocenebrin… Muricid… Neoga… Gastr… Mollu… Animal…
 6 5180     Acanthina … Acanth… Ocenebrin… Muricid… Neoga… Gastr… Mollu… Animal…
 7 5181     Acanthina … Acanth… Ocenebrin… Muricid… Neoga… Gastr… Mollu… Animal…
 8 147501   Acanthina … Acanth… Ocenebrin… Muricid… Neoga… Gastr… Mollu… Animal…
 9 151551   Acmaturris… Acmatu… Mangeliin… Turridae Neoga… Gastr… Mollu… Animal…
10 150126   Acmaturris… Acmatu… Mangeliin… Turridae Neoga… Gastr… Mollu… Animal…
# … with 19,380 more rows

All other tables can also take an argument to server:

species(server="sealifebase")

# A tibble: 96,816 × 109
   SpecCode Species  Genus  Author SpeciesRefNo FBname FamCode Subfamily GenCode
   <chr>    <chr>    <chr>  <chr>  <chr>        <chr>    <dbl> <chr>     <chr>  
 1 32307    Aaptola… Aapto… (Pils… 19           <NA>       815 <NA>      27838  
 2 32306    Aaptola… Aapto… Newma… 81749        <NA>       815 <NA>      27838  
 3 32308    Aaptola… Aapto… (Pils… 19           <NA>       815 <NA>      27838  
 4 32304    Aaptola… Aapto… Newma… 19           <NA>       815 <NA>      27838  
 5 32305    Aaptola… Aapto… Newma… 19           <NA>       815 <NA>      27838  
 6 51720    Aaptos … Aaptos (Schm… 19           <NA>      2630 <NA>      9253   
 7 165941   Aaptos … Aaptos de La… 108813       <NA>      2630 <NA>      9253   
 8 105687   Aaptos … Aaptos (Wils… 3477         <NA>      2630 <NA>      9253   
 9 139407   Aaptos … Aaptos (Tops… 85482        <NA>      2630 <NA>      9253   
10 130070   Aaptos … Aaptos (Soll… 81108        <NA>      2630 <NA>      9253   
# … with 96,806 more rows, and 100 more variables: TaxIssue <dbl>,
#   Remark <chr>, PicPreferredName <chr>, PicPreferredNameM <chr>,
#   PicPreferredNameF <chr>, PicPreferredNameJ <chr>, Source <chr>,
#   AuthorRef <dbl>, SubGenCode <dbl>, Fresh <chr>, Brack <dbl>,
#   Saltwater <chr>, Land <dbl>, BodyShapeI <chr>, DemersPelag <chr>,
#   AnaCat <chr>, MigratRef <dbl>, DepthRangeShallow <dbl>,
#   DepthRangeDeep <dbl>, DepthRangeRef <chr>, DepthRangeComShallow <dbl>, …
…
