The New rfishbase
…
Another typical use case is in wanting to collect information about all species in a particular taxonomic group, such as a Genus, Family or Order. The function species_list recognizes six taxonomic levels, and can help you generate a list of names of all species in a given group:

fish <- species_list(Genus = "Labroides")
fish

[1] "Labroides dimidiatus"    "Labroides bicolor"      
[3] "Labroides pectoralis"    "Labroides phthirophagus"
[5] "Labroides rubrolabiatus"

rfishbase also recognizes common names. When a common name refers to multiple species, all matching species are returned:

trout <- common_to_sci("trout")
trout

# A tibble: 279 x 4
   Species                   ComName              Language SpecCode
   <chr>                     <chr>                <chr>       <dbl>
 1 Salmo obtusirostris       Adriatic trout       English      6210
 2 Schizothorax richardsonii Alawan snowtrout     English      8705
 3 Schizopyge niger          Alghad snowtrout     English     24454
 4 Salvelinus fontinalis     American brook trout English       246
 5 Salmo trutta              Amu-Darya trout      English       238
 6 Oncorhynchus apache       Apache Trout         English      2687
 7 Oncorhynchus apache       Apache trout         English      2687
 8 Plectropomus areolatus    Apricot trout        English      6082
 9 Salmo trutta              Aral Sea Trout       English       238
10 Salmo trutta              Aral trout           English       238
# … with 269 more rows

Note that there is no need to validate names coming from common_to_sci or species_list, as these will always return valid names.

Getting data

With a species list in place, we are ready to query fishbase for data. Note that if you have a very long list of species, it is always a good idea to try out your intended functions with a subset of that list first to make sure everything is working.

The species() function returns a table containing much (but not all) of the information found on the summary or homepage for a species on fishbase.org. rfishbase functions always return tidy data tables: rows are observations (e.g. a species, individual samples from a species) and columns are variables (fields).

species(trout$Species)

# A tibble: 279 x 98
   SpecCode Species SpeciesRefNo Author FBname PicPreferredName
      <dbl> <chr>          <dbl> <chr>  <chr>  <chr>           
 1     6210 Salmo …        59043 (Heck… Adria… Saobt_u0.jpg    
 2     8705 Schizo…         4832 (Gray… Snowt… Scric_u1.jpg    
 3    24454 Schizo…         4832 (Heck… Algha… <NA>            
 4      246 Salvel…         5723 (Mitc… Brook… Safon_u4.jpg    
 5      238 Salmo …         4779 Linna… Sea t… Satru_u2.jpg    
 6     2687 Oncorh…         5723 (Mill… Apach… Onapa_u0.jpg    
 7     2687 Oncorh…         5723 (Mill… Apach… Onapa_u0.jpg    
 8     6082 Plectr…         5222 (R<fc… Squar… Plare_u4.jpg    
 9      238 Salmo …         4779 Linna… Sea t… Satru_u2.jpg    
10      238 Salmo …         4779 Linna… Sea t… Satru_u2.jpg    
# … with 269 more rows, and 92 more variables: PicPreferredNameM <chr>,
#   PicPreferredNameF <chr>, PicPreferredNameJ <chr>, FamCode <dbl>,
#   Subfamily <chr>, GenCode <dbl>, SubGenCode <dbl>, BodyShapeI <chr>,
#   Source <chr>, AuthorRef <lgl>, Remark <chr>, TaxIssue <dbl>,
#   Fresh <dbl>, Brack <dbl>, Saltwater <dbl>, DemersPelag <chr>,
#   AnaCat <chr>, MigratRef <dbl>, DepthRangeShallow <dbl>,
#   DepthRangeDeep <dbl>, DepthRangeRef <dbl>, DepthRangeComShallow <dbl>,
#   DepthRangeComDeep <dbl>, DepthComRef <dbl>, LongevityWild <dbl>,
#   LongevityWildRef <dbl>, LongevityCaptive <dbl>, LongevityCapRef <dbl>,
…
Most tables contain many fields. To avoid overly cluttering the screen, rfishbase displays tables as “tibbles” from the dplyr package. These act just like the familiar data.frames of base R except that they print to the screen in a more tidy fashion. Note that columns that cannot fit easily in the display are summarized below the table. This gives us an easy way to see what fields are available in a given table.

Most rfishbase functions will let the user subset these fields by listing them in the fields argument, for instance:

dat <- species(trout$Species, fields=c("Species", "PriceCateg", "Vulnerability"))
dat

# A tibble: 279 x 3
   Species                   PriceCateg Vulnerability
   <chr>                     <chr>              <dbl>
 1 Salmo obtusirostris       very high           47.0
 2 Schizothorax richardsonii unknown             34.8
 3 Schizopyge niger          unknown             46.8
 4 Salvelinus fontinalis     very high           43.4
 5 Salmo trutta              very high           60.0
 6 Oncorhynchus apache       very high           53.8
 7 Oncorhynchus apache       very high           53.8
 8 Plectropomus areolatus    very high           57.0
 9 Salmo trutta              very high           60.0
10 Salmo trutta              very high           60.0
# … with 269 more rows
…
Because rfishbase accesses the back end database, it does not always line up with the web display. Frequently rfishbase functions will return more information than is available on the web versions of the these tables. Some information found on the summary homepage for a species is not available from the species summary function, but must be extracted from a different table. For instance, the species Resilience information is not one of the fields in the species summary table, despite appearing on the species homepage of fishbase.org. To discover which table this information is in, we can use the special rfishbase function list_fields, which will list all tables with a field matching the query string:

list_fields("Resilience")

# A tibble: 1 x 1
  table 
  <chr> 
1 stocks

This shows us that this information appears on the stocks table. We can then request this data from the stocks table:

stocks(trout$Species, fields=c("Species", "Resilience", "StockDefs"))

# A tibble: 380 x 3
   Species           Resilience StockDefs                                  
   <chr>             <chr>      <chr>                                      
 1 Salmo obtusirost… Medium     Europe:  Adriatic basin in Krka, Jardo, Vr…
 2 Schizothorax ric… Medium     Asia:  Himalayan region of India, Sikkim a…
 3 Schizopyge niger  Medium     Asia:  Kashmir Valley in India and Azad Ka…
 4 Salvelinus fonti… Medium     North America:  most of eastern Canada fro…
 5 Salmo trutta      High       Europe and Asia:  Atlantic, North, White a…
 6 Salmo trutta      <NA>       <i>Salmo trutta aralensis</i>:  Asia:  end…
 7 Salmo trutta      Medium     <i>Salmo trutta fario</i>:  Northeast  Atl…
 8 Salmo trutta      Low        "<i>Salmo trutta lacustris</i>\t:  Europe:…
 9 Salmo trutta      <NA>       "<i>Salmo trutta oxianus</i>\t:  Asia:  Am…
10 Salmo trutta      <NA>       <i>Salmo trutta aralensis</i>:  Asia:  Ara…
# … with 370 more rows
…
rfishbase relies on periodic cache releases. The current database release is 17.07 (i.e. dating from July 2017). Set the version of FishBase you wish to access by setting the environmental variable:

Sys.setenv(FISHBASE_VERSION="17.07")

Note that the same version number applies to both the fishbase and sealifebase data. Stay tuned for new releases.

SeaLifeBase

SeaLifeBase.org is maintained by the same organization and largely parallels the database structure of Fishbase. As such, almost all rfishbase functions can instead be instructed to address the

We can begin by viewing the taxa table for sealifebase:

load_taxa(server="sealifebase")

# A tibble: 119,074 x 9
   SpecCode Species    Genus  Subfamily Family  Order  Class Phylum Kingdom
      <dbl> <chr>      <chr>  <chr>     <chr>   <chr>  <chr> <chr>  <chr>  
 1        1 Phoronis … Phoro… <NA>      Not as… Not a… Not … <NA>   <NA>   
 2        2 Phoronis … Phoro… <NA>      Not as… Not a… Not … <NA>   <NA>   
 3        3 Phoronis … Phoro… <NA>      Not as… Not a… Not … <NA>   <NA>   
 4        4 Phoronis … Phoro… <NA>      Not as… Not a… Not … <NA>   <NA>   
 5        5 Phoronis … Phoro… <NA>      Not as… Not a… Not … <NA>   <NA>   
 6        6 Phoronis … Phoro… <NA>      Not as… Not a… Not … <NA>   <NA>   
 7        7 Phoronis … Phoro… <NA>      Not as… Not a… Not … <NA>   <NA>   
 8        8 Phoronops… Phoro… <NA>      Not as… Not a… Not … <NA>   <NA>   
 9        9 Phoronops… Phoro… <NA>      Not as… Not a… Not … <NA>   <NA>   
10       10 Phoronops… Phoro… <NA>      Not as… Not a… Not … <NA>   <NA>   
# … with 119,064 more rows

(Note: running load_taxa() at the beginning of any session, for either fishbase or sealifebase is a good way to “warm up” rfishbase by loading in taxonomic data it will need. This information is cached throughout your session and will make all subsequent commands run faster. But no worries if you skip this step, rfishbase will peform it for you on the first time it is needed, and will cache these results thereafter.)

All other tables can also take an argument to server:

species(server="sealifebase")

# A tibble: 119,074 x 104
   SpecCode Species SpeciesRefNo Author AuthorRef FBname PicPreferredName
      <dbl> <chr>          <dbl> <chr>      <dbl> <chr>  <chr>           
 1        1 Phoron…            1 Wrigh…        NA <NA>   <NA>            
 2        2 Phoron…          997 Wrigh…        NA <NA>   <NA>            
 3        3 Phoron…            1 Oka, …        NA <NA>   <NA>            
 4        4 Phoron…            1 Haswe…        NA <NA>   Phaus_u0.jpg    
 5        5 Phoron…          997 Selys…        NA <NA>   <NA>            
 6        6 Phoron…            1 Cori,…        NA phoro… <NA>            
 7        7 Phoron…            1 (Schn…        NA <NA>   <NA>            
 8        8 Phoron…            1 Gilch…        NA <NA>   <NA>            
 9        9 Phoron…            1 Pixel…        NA <NA>   <NA>            
10       10 Phoron…            1 Hilto…        NA Calif… <NA>            
# … with 119,064 more rows, and 97 more variables:
#   PicPreferredNameM <chr>, PicPreferredNameF <chr>,
#   PicPreferredNameJ <chr>, FamCode <dbl>, Subfamily <chr>, Source <chr>,
#   Remark <chr>, TaxIssue <dbl>, Fresh <dbl>, Brack <dbl>,
#   Saltwater <dbl>, Land <dbl>, DemersPelag <chr>, AnaCat <chr>,
#   MigratRef <dbl>, DepthRangeShallow <dbl>, DepthRangeDeep <dbl>,
#   DepthRangeRef <dbl>, DepthRangeComShallow <dbl>,
#   DepthRangeComDeep <dbl>, DepthComRef <dbl>, LongevityWild <dbl>,
#   LongevityWildRef <dbl>, LongevityCaptive <lgl>, LongevityCapRef <lgl>,
…
